[
 
	{
        "validator": ["StringValidator", "notEmpty"],
        "params": ["{highlight}"],
		"blocking": true,
        "rules": [
            {
                "validator": ["StringValidator", "maxLength"],
                "params": ["{highlight}", 5],
                "error": {
                    "input": "highlight",
                    "message": "highlight need to be limited to 5 characters."
                }
            }

        ],
        "error": {
            "input": "highlight",
            "message": "Missing highlight value."
        }
    }
	
]