[
 
	{
        "validator": ["StringValidator", "notEmpty"],
        "params": ["{name}"],
		"blocking": true,
        "rules": [
            {
                "validator": ["StringValidator", "maxLength"],
                "params": ["{name}", 100],
                "error": {
                    "input": "name",
                    "message": "study resource name need to be limited to 100 characters."
                }
            }

        ],
        "error": {
            "input": "name",
            "message": "Missing study resource name."
        }
    },

	{
        "validator": ["StringValidator", "notEmpty"],
        "params": ["{languageId}"],
		"blocking": true,
        "rules": [
            {
                "validator": ["StringValidator", "maxLength"],
                "params": ["{languageId}", 2],
                "error": {
                    "input": "languageId",
                    "message": "study resource languageId need to be limited to 2 characters."
                }
            }

        ],
        "error": {
            "input": "languageId",
            "message": "Missing languageId."
        }
    },
	
	
	{
        "validator": ["StringValidator", "notEmpty"],
        "params": ["{schoolYearId}"],
		"blocking": true,
        "rules": [
            {
                "validator": ["StringValidator", "maxLength"],
                "params": ["{schoolYearId}", 2],
                "error": {
                    "input": "schoolYearId",
                    "message": "study resource schoolYearId need to be limited to 2 characters."
                }
            }

        ],
        "error": {
            "input": "schoolYearId",
            "message": "Missing schoolYearId."
        }
    }
	
	
	 
	
]